{
    "/js/app_backend.js": "/js/app_backend.js",
    "/css/template_frontend.css": "/css/template_frontend.css",
    "/css/app_backend.css": "/css/app_backend.css",
    "/css/custom_backend.css": "/css/custom_backend.css",
    "/css/fontawesome.css": "/css/fontawesome.css"
}
